{
  "content": [
    {
      "id": 1117460,
      "mrr": false,
      "numeroConvocatoria": "915899",
      "descripcion": "CONVENIO DE COLABORACIÓN ENTRE LA CONCEJLÍA DE POLÍTICA SOCIAL DELAYUNTAMIENTO DE VIGO Y LA FUNDACIÓN IGUAL ARTE PARA  DESENVOLVER LAS ACTIVIDADES PREVISTAS EN EL PROGRAMA VIGO, ARTE INCLUSIVA (AÑOS 2026 - 2029)",
      "descripcionLeng": "CONVENIO DE COLABORACIÓN ENTRE A CONCELLERÍA DE POLÍTICA SOCIAL DO CONCELLO DE VIGO E A FUNDACIÓN IGUAL ARTE PARA O DESENVOLVEMENTO DAS ACTIVIDADES PREVISTAS NO PROGRAMA VIGO, ARTE INCLUSIVA (ANOS 2026 - 2029)",
      "fechaRecepcion": "2026-06-26",
      "nivel1": "LOCAL",
      "nivel2": "VIGO",
      "nivel3": "AYUNTAMIENTO DE VIGO",
      "codigoInvente": null
    },
    {
      "id": 1117459,
      "mrr": false,
      "numeroConvocatoria": "915898",
      "descripcion": "Bases reguladoras y convocatoria correspondiente a ayudas directas a estudiantado del Máster Erasmus Mundus en Estudios de las Mujeres y de Género (GEMMA) que cursen su segundo año y efectúen su periodo de movilidad con destino en la Universidad de Oviedo",
      "descripcionLeng": null,
      "fechaRecepcion": "2026-06-26",
      "nivel1": "OTROS",
      "nivel2": "UNIVERSIDAD DE OVIEDO",
      "nivel3": null,
      "codigoInvente": "INV00005347"
    },
    {
      "id": 1117458,
      "mrr": false,
      "numeroConvocatoria": "915897",
      "descripcion": "convocatoria de Subvenciones del Ayuntamiento de Laredo en concurrencia competitiva para proyectos educativos en los centros\npúblicos y concertados de educación y AMPAS/AFAS para 2026",
      "descripcionLeng": null,
      "fechaRecepcion": "2026-06-26",
      "nivel1": "LOCAL",
      "nivel2": "LAREDO",
      "nivel3": "AYUNTAMIENTO DE LAREDO",
      "codigoInvente": null
    }
  ],
  "pageable": {
    "sort": {
      "sorted": true,
      "unsorted": false,
      "empty": false
    },
    "pageNumber": 0,
    "pageSize": 3,
    "offset": 0,
    "unpaged": false,
    "paged": true
  },
  "last": false,
  "totalElements": 639128,
  "totalPages": 213043,
  "first": true,
  "sort": {
    "sorted": true,
    "unsorted": false,
    "empty": false
  },
  "numberOfElements": 3,
  "size": 3,
  "number": 0,
  "empty": false,
  "advertencia": "La reutilización de los datos del Sistema Nacional de Publicidad de Subvenciones y Ayudas Públicas está sujeta a una serie de restricciones y consideraciones legales. Consulte el aviso legal en https://www.infosubvenciones.es/bdnstrans/GE/es/avisolegal.Además, el usuario debe ser consciente que la información presentada es de naturaleza dinámica, y que los datos pueden ser sometidos a correcciones, inserciones, modificaciones y eliminaciones en momentos posteriores a su extracción. Accesos al API del sistema Nacional de Publicidad de Subvenciones y Ayudas Públicas. La Administración Presupuestaria, para salvaguardar la protección del acceso libre e irrestricto de los ciudadanos a este Portal y a su información podrá adoptar medidas restrictivas de acceso al API ante situaciones de manifiesto abuso del servicio, riesgos de seguridad, o uso fraudulento de la información descargada, de acuerdo con las buenas prácticas de gestión de datos abiertos (https://datos.gob.es/es/blog/limitaciones-la-consulta-de-una-api) establecidas por el Ministerio para la Transformación Digital y de la Función Pública."
}